{
  "kind": "singleType",
  "collectionName": "contact_info_and_app_links",
  "info": {
    "singularName": "contact-info-and-app-link",
    "pluralName": "contact-info-and-app-links",
    "displayName": "Contact info & app links",
    "description": ""
  },
  "options": {
    "draftAndPublish": true
  },
  "pluginOptions": {},
  "attributes": {
    "phone": {
      "type": "string",
      "minLength": 7,
      "pluginOptions": {}
    },
    "email": {
      "type": "string",
      "minLength": 8,
      "maxLength": 60,
      "pluginOptions": {}
    },
    "playmarket": {
      "type": "string",
      "pluginOptions": {}
    },
    "appstore": {
      "type": "string",
      "pluginOptions": {}
    },
    "frontOfficeLink": {
      "type": "string",
      "required": true,
      "minLength": 5
    }
  }
}
