{
  "kind": "collectionType",
  "collectionName": "news",
  "info": {
    "singularName": "news-item",
    "pluralName": "news",
    "displayName": "News",
    "description": ""
  },
  "options": {
    "draftAndPublish": true
  },
  "pluginOptions": {
    "i18n": {
      "localized": true
    }
  },
  "attributes": {
    "heading": {
      "type": "string",
      "required": true,
      "minLength": 10,
      "pluginOptions": {
        "i18n": {
          "localized": true
        }
      }
    },
    "text": {
      "type": "richtext",
      "required": true,
      "minLength": 50,
      "pluginOptions": {
        "i18n": {
          "localized": true
        }
      }
    },
    "image": {
      "type": "media",
      "multiple": false,
      "required": true,
      "allowedTypes": [
        "images",
        "files",
        "videos",
        "audios"
      ],
      "pluginOptions": {
        "i18n": {
          "localized": true
        }
      }
    }
  }
}
